…
1.  How many aisles, and which are most items from?

<!-- end list -->

``` r
instacart %>% 
    count(aisle) %>% 
    arrange(desc(n))
```

    ## # A tibble: 134 x 2
    ##    aisle                              n
    ##    <chr>                          <int>
    ##  1 fresh vegetables              150609
    ##  2 fresh fruits                  150473
    ##  3 packaged vegetables fruits     78493
    ##  4 yogurt                         55240
    ##  5 packaged cheese                41699
    ##  6 water seltzer sparkling water  36617
    ##  7 milk                           32644
    ##  8 chips pretzels                 31269
    ##  9 soy lactosefree                26240
    ## 10 bread                          23635
    ## # … with 124 more rows
…
accelerometer_df
```

    ## # A tibble: 50,400 x 5
    ##     week day    weekday_vs_weekend minute activity
    ##    <dbl> <fct>  <fct>               <int>    <dbl>
    ##  1     1 Monday weekday                 1        1
    ##  2     1 Monday weekday                 2        1
    ##  3     1 Monday weekday                 3        1
    ##  4     1 Monday weekday                 4        1
    ##  5     1 Monday weekday                 5        1
    ##  6     1 Monday weekday                 6        1
    ##  7     1 Monday weekday                 7        1
    ##  8     1 Monday weekday                 8        1
    ##  9     1 Monday weekday                 9        1
    ## 10     1 Monday weekday                10        1
    ## # … with 50,390 more rows
…
ny_noaa_df %>% 
  drop_na(snow) %>% 
  group_by(snow) %>% 
  summarise(count = n()) %>% 
  arrange(desc(count))
```

    ## `summarise()` ungrouping output (override with `.groups` argument)

    ## # A tibble: 281 x 2
    ##     snow   count
    ##    <int>   <int>
    ##  1     0 2008508
    ##  2    25   31022
    ##  3    13   23095
    ##  4    51   18274
    ##  5    76   10173
    ##  6     8    9962
    ##  7     5    9748
    ##  8    38    9197
    ##  9     3    8790
    ## 10   102    6552
    ## # … with 271 more rows
…
